%YAML 1.1
%TAG !u! tag:unity3d.com,2011:
--- !u!114 &11400000
MonoBehaviour:
  m_ObjectHideFlags: 0
  m_PrefabParentObject: {fileID: 0}
  m_PrefabInternal: {fileID: 0}
  m_GameObject: {fileID: 0}
  m_Enabled: 1
  m_EditorHideFlags: 0
  m_Script: {fileID: 11500000, guid: f4e05abc3784f354d98d7bd7a425fafd, type: 3}
  m_Name: Achievement06
  m_EditorClassIdentifier: 
  token: loser
  description: Finish uncool
  sprite: {fileID: 21300000, guid: d4bd4ef27a561db4386be802a43c236d, type: 3}
  title: Loser
  unlocks: 'Reward: Unlocks video "Meaning of life"'
