%YAML 1.1
%TAG !u! tag:unity3d.com,2011:
--- !u!74 &7400000
AnimationClip:
  m_ObjectHideFlags: 0
  m_PrefabParentObject: {fileID: 0}
  m_PrefabInternal: {fileID: 0}
  m_Name: Legs_Walking
  serializedVersion: 6
  m_Legacy: 0
  m_Compressed: 0
  m_UseHighQualityCurve: 1
  m_RotationCurves: []
  m_CompressedRotationCurves: []
  m_EulerCurves: []
  m_PositionCurves: []
  m_ScaleCurves: []
  m_FloatCurves: []
  m_PPtrCurves:
  - curve:
    - time: 0
      value: {fileID: 21300000, guid: 55b0adcc5933b4d4bbddd61e2cb828e5, type: 3}
    - time: 0.11666667
      value: {fileID: 21300000, guid: a7665e0ad8f48f3419e632a2fbc0b4f8, type: 3}
    - time: 0.25
      value: {fileID: 21300000, guid: 91ac2e5ac19df394dae0001484ec7e04, type: 3}
    - time: 0.36666667
      value: {fileID: 21300000, guid: 2a0e74a867db81549a207a64398305bd, type: 3}
    - time: 0.5
      value: {fileID: 21300000, guid: 4541ad344e5f85441879f85a25060112, type: 3}
    - time: 0.6333333
      value: {fileID: 21300000, guid: ab35ebfb0c662094f9f28bf883081b5e, type: 3}
    - time: 0.75
      value: {fileID: 21300000, guid: 34bb26d08e769b14db0a2c033c6e8689, type: 3}
    - time: 0.8666667
      value: {fileID: 21300000, guid: 5d0f5adc8b3a42845a22c2af6d179861, type: 3}
    - time: 1
      value: {fileID: 21300000, guid: 5d0f5adc8b3a42845a22c2af6d179861, type: 3}
    attribute: m_Sprite
    path: Legs
    classID: 212
    script: {fileID: 0}
  m_SampleRate: 60
  m_WrapMode: 0
  m_Bounds:
    m_Center: {x: 0, y: 0, z: 0}
    m_Extent: {x: 0, y: 0, z: 0}
  m_ClipBindingConstant:
    genericBindings:
    - serializedVersion: 2
      path: 1563094196
      attribute: 0
      script: {fileID: 0}
      typeID: 212
      customType: 23
      isPPtrCurve: 1
    pptrCurveMapping:
    - {fileID: 21300000, guid: 55b0adcc5933b4d4bbddd61e2cb828e5, type: 3}
    - {fileID: 21300000, guid: a7665e0ad8f48f3419e632a2fbc0b4f8, type: 3}
    - {fileID: 21300000, guid: 91ac2e5ac19df394dae0001484ec7e04, type: 3}
    - {fileID: 21300000, guid: 2a0e74a867db81549a207a64398305bd, type: 3}
    - {fileID: 21300000, guid: 4541ad344e5f85441879f85a25060112, type: 3}
    - {fileID: 21300000, guid: ab35ebfb0c662094f9f28bf883081b5e, type: 3}
    - {fileID: 21300000, guid: 34bb26d08e769b14db0a2c033c6e8689, type: 3}
    - {fileID: 21300000, guid: 5d0f5adc8b3a42845a22c2af6d179861, type: 3}
    - {fileID: 21300000, guid: 5d0f5adc8b3a42845a22c2af6d179861, type: 3}
  m_AnimationClipSettings:
    serializedVersion: 2
    m_AdditiveReferencePoseClip: {fileID: 0}
    m_AdditiveReferencePoseTime: 0
    m_StartTime: 0
    m_StopTime: 1.0166667
    m_OrientationOffsetY: 0
    m_Level: 0
    m_CycleOffset: 0
    m_HasAdditiveReferencePose: 0
    m_LoopTime: 1
    m_LoopBlend: 0
    m_LoopBlendOrientation: 0
    m_LoopBlendPositionY: 0
    m_LoopBlendPositionXZ: 0
    m_KeepOriginalOrientation: 0
    m_KeepOriginalPositionY: 1
    m_KeepOriginalPositionXZ: 0
    m_HeightFromFeet: 0
    m_Mirror: 0
  m_EditorCurves: []
  m_EulerEditorCurves: []
  m_HasGenericRootTransform: 0
  m_HasMotionFloatCurves: 0
  m_GenerateMotionCurves: 0
  m_Events: []
