%YAML 1.1
%TAG !u! tag:unity3d.com,2011:
--- !u!74 &7400000
AnimationClip:
  m_ObjectHideFlags: 0
  m_PrefabParentObject: {fileID: 0}
  m_PrefabInternal: {fileID: 0}
  m_Name: GetIn
  serializedVersion: 6
  m_Legacy: 0
  m_Compressed: 0
  m_UseHighQualityCurve: 1
  m_RotationCurves: []
  m_CompressedRotationCurves: []
  m_EulerCurves: []
  m_PositionCurves: []
  m_ScaleCurves: []
  m_FloatCurves: []
  m_PPtrCurves:
  - curve:
    - time: 0
      value: {fileID: 21300000, guid: ebc46f119d529db4ab1d7f7205968ed5, type: 3}
    - time: 0.16666667
      value: {fileID: 21300000, guid: 54bd3705862ed1446a6de4c7aecb6a25, type: 3}
    - time: 0.33333334
      value: {fileID: 21300000, guid: eeb7a708dad50a5469c4ab12a17d1dab, type: 3}
    - time: 0.5
      value: {fileID: 21300000, guid: cd8fc5a894ed538429921f02ae6a66ff, type: 3}
    - time: 0.6666667
      value: {fileID: 21300000, guid: 5d382635396cf2a429316f954e920985, type: 3}
    - time: 0.8333333
      value: {fileID: 21300000, guid: 106487f9362b7bf4393380f9ac05b75f, type: 3}
    - time: 1
      value: {fileID: 21300000, guid: 106487f9362b7bf4393380f9ac05b75f, type: 3}
    attribute: m_Sprite
    path: 
    classID: 212
    script: {fileID: 0}
  m_SampleRate: 60
  m_WrapMode: 0
  m_Bounds:
    m_Center: {x: 0, y: 0, z: 0}
    m_Extent: {x: 0, y: 0, z: 0}
  m_ClipBindingConstant:
    genericBindings:
    - serializedVersion: 2
      path: 0
      attribute: 0
      script: {fileID: 0}
      typeID: 212
      customType: 23
      isPPtrCurve: 1
    pptrCurveMapping:
    - {fileID: 21300000, guid: ebc46f119d529db4ab1d7f7205968ed5, type: 3}
    - {fileID: 21300000, guid: 54bd3705862ed1446a6de4c7aecb6a25, type: 3}
    - {fileID: 21300000, guid: eeb7a708dad50a5469c4ab12a17d1dab, type: 3}
    - {fileID: 21300000, guid: cd8fc5a894ed538429921f02ae6a66ff, type: 3}
    - {fileID: 21300000, guid: 5d382635396cf2a429316f954e920985, type: 3}
    - {fileID: 21300000, guid: 106487f9362b7bf4393380f9ac05b75f, type: 3}
    - {fileID: 21300000, guid: 106487f9362b7bf4393380f9ac05b75f, type: 3}
  m_AnimationClipSettings:
    serializedVersion: 2
    m_AdditiveReferencePoseClip: {fileID: 0}
    m_AdditiveReferencePoseTime: 0
    m_StartTime: 0
    m_StopTime: 1.0166667
    m_OrientationOffsetY: 0
    m_Level: 0
    m_CycleOffset: 0
    m_HasAdditiveReferencePose: 0
    m_LoopTime: 1
    m_LoopBlend: 0
    m_LoopBlendOrientation: 0
    m_LoopBlendPositionY: 0
    m_LoopBlendPositionXZ: 0
    m_KeepOriginalOrientation: 0
    m_KeepOriginalPositionY: 1
    m_KeepOriginalPositionXZ: 0
    m_HeightFromFeet: 0
    m_Mirror: 0
  m_EditorCurves: []
  m_EulerEditorCurves: []
  m_HasGenericRootTransform: 0
  m_HasMotionFloatCurves: 0
  m_GenerateMotionCurves: 0
  m_Events: []
